; Engine configuration file.
; It's best edited using the editor UI and not directly,
; since the parameters that go here are not all obvious.
;
; Format:
;   [section] ; section goes between []
;   param=value ; assign values to parameters

config_version=3

[application]

config/name="HexEvade"
run/main_scene="res://Scenes/Menu.tscn"
config/icon="res://Assets/Ikona.png"
config/auto_accept_quit=false
config/quit_on_go_back=false

[display]

window/size/width=1920
window/size/height=1080
window/size/fullscreen=true
window/handheld/orientation="sensor_landscape"
window/handheld/emulate_touchscreen=true
window/stretch/mode="2d"

[input]

ui_accept=[ Object(InputEventKey,"resource_local_to_scene":false,"resource_name":"","device":0,"alt":false,"shift":false,"control":false,"meta":false,"command":false,"pressed":false,"scancode":16777221,"unicode":0,"echo":false,"script":null)
, Object(InputEventKey,"resource_local_to_scene":false,"resource_name":"","device":0,"alt":false,"shift":false,"control":false,"meta":false,"command":false,"pressed":false,"scancode":16777222,"unicode":0,"echo":false,"script":null)
, Object(InputEventKey,"resource_local_to_scene":false,"resource_name":"","device":0,"alt":false,"shift":false,"control":false,"meta":false,"command":false,"pressed":false,"scancode":32,"unicode":0,"echo":false,"script":null)
, Object(InputEventJoypadButton,"resource_local_to_scene":false,"resource_name":"","device":0,"button_index":0,"pressure":0.0,"pressed":false,"script":null)
, Object(InputEventMouseButton,"resource_local_to_scene":false,"resource_name":"","device":0,"alt":false,"shift":false,"control":false,"meta":false,"command":false,"button_mask":0,"position":Vector2( 0, 0 ),"global_position":Vector2( 0, 0 ),"factor":1.0,"button_index":1,"pressed":false,"doubleclick":false,"script":null)
 ]

[layer_names]

2d_physics/layer_1="player"
2d_physics/layer_2="sfera"
2d_physics/layer_3="meteor"
2d_physics/layer_4="powerUps"
2d_physics/layer_5="start"
2d_physics/layer_6="bomb"
2d_physics/layer_7="change"
2d_physics/layer_8="mobDown"
2d_physics/layer_9="mobSpecial"

[physics]

2d/default_gravity=0
3d/default_gravity=0.0

[rendering]

quality/intended_usage/framebuffer_allocation=0
quality/intended_usage/framebuffer_allocation.mobile=0
environment/default_environment="res://default_env.tres"
