[gd_scene load_steps=4 format=2]

[ext_resource path="res://Scripts/ActivationControl.gd" type="Script" id=1]
[ext_resource path="res://Assets/MENU HUD/Setting/Control/Selector Acive.png" type="Texture" id=2]
[ext_resource path="res://Assets/MENU HUD/Customize/Mapa/Aktywny Selector Mapa.png" type="Texture" id=3]

[node name="ActivationControl" type="Control"]

anchor_left = 0.0
anchor_top = 0.0
anchor_right = 0.0
anchor_bottom = 0.0
margin_right = 40.0
margin_bottom = 40.0
rect_pivot_offset = Vector2( 0, 0 )
rect_clip_content = false
mouse_filter = 0
mouse_default_cursor_shape = 0
size_flags_horizontal = 1
size_flags_vertical = 1
script = ExtResource( 1 )
_sections_unfolded = [ "Visibility" ]
Index = null

[node name="Control" type="TextureRect" parent="." index="0"]

modulate = Color( 1, 1, 1, 0 )
anchor_left = 0.0
anchor_top = 0.0
anchor_right = 0.0
anchor_bottom = 0.0
margin_right = 40.0
margin_bottom = 40.0
rect_pivot_offset = Vector2( 0, 0 )
rect_clip_content = false
mouse_filter = 1
mouse_default_cursor_shape = 0
size_flags_horizontal = 1
size_flags_vertical = 1
texture = ExtResource( 2 )
expand = true
stretch_mode = 0
_sections_unfolded = [ "Visibility" ]

[node name="Button" type="TouchScreenButton" parent="Control" index="0"]

modulate = Color( 1, 1, 1, 0 )
scale = Vector2( 0.908719, 1.07886 )
normal = ExtResource( 3 )
pressed = null
bitmask = null
shape = null
shape_centered = true
shape_visible = true
passby_press = false
action = ""
visibility_mode = 0
_sections_unfolded = [ "Visibility" ]

[connection signal="pressed" from="Control/Button" to="." method="_on_Button_pressed"]


