[gd_scene load_steps=3 format=2]

[ext_resource path="res://Scenes/Power.tscn" type="PackedScene" id=1]
[ext_resource path="res://Assets/Power-UP/Ikony/Boom.png" type="Texture" id=2]

[node name="PowerBomb" groups=[
"Bomb",
] instance=ExtResource( 1 )]

_sections_unfolded = [ "Angular", "Applied Forces", "Collision", "Linear", "Material", "Pickable", "Transform", "Visibility" ]

[node name="Sprite" parent="." index="0"]

texture = ExtResource( 2 )

[node name="Visible" parent="." index="2"]

position = Vector2( 3.02477, 0.536922 )
scale = Vector2( 3.25694, 2.90484 )


