[gd_scene load_steps=4 format=2]

[ext_resource path="res://Assets/MENU HUD/Customize/Unlock Pop-up.png" type="Texture" id=1]
[ext_resource path="res://Scripts/Unlock.gd" type="Script" id=2]
[ext_resource path="res://Assets/MENU HUD/Customize/Mapa/Aktywny Selector Mapa.png" type="Texture" id=3]

[node name="Unlock" type="TextureRect"]

anchor_left = 0.0
anchor_top = 0.0
anchor_right = 0.0
anchor_bottom = 0.0
margin_right = 1920.0
margin_bottom = 1080.0
rect_pivot_offset = Vector2( 0, 0 )
rect_clip_content = false
mouse_filter = 1
mouse_default_cursor_shape = 0
size_flags_horizontal = 1
size_flags_vertical = 1
texture = ExtResource( 1 )
stretch_mode = 0
script = ExtResource( 2 )

[node name="Unlock" type="TouchScreenButton" parent="." index="0"]

modulate = Color( 1, 1, 1, 0 )
position = Vector2( 772, 370 )
scale = Vector2( 0.60599, 0.398055 )
normal = ExtResource( 3 )
pressed = null
bitmask = null
shape = null
shape_centered = true
shape_visible = true
passby_press = false
action = ""
visibility_mode = 0
_sections_unfolded = [ "Visibility" ]

[node name="Cancel" type="TouchScreenButton" parent="." index="1"]

modulate = Color( 1, 1, 1, 0 )
position = Vector2( 782, 590 )
scale = Vector2( 0.59815, 0.403104 )
normal = ExtResource( 3 )
pressed = null
bitmask = null
shape = null
shape_centered = true
shape_visible = true
passby_press = false
action = ""
visibility_mode = 0
_sections_unfolded = [ "Visibility" ]

[connection signal="pressed" from="Unlock" to="." method="_on_Unlock_pressed"]

[connection signal="pressed" from="Cancel" to="." method="_on_Cancel_pressed"]


